{"A*01": 12.116666666666667, "A*01:01": 0.0, "A*01:02": 0.0, "A*02": 27.222222222222218, "A*02:01": 0.0, "A*02:01:01:01": 62.5, "A*02:03": 0.0, "A*02:05": 0.0, "A*02:06": 0.0, "A*02:06:01": 25.0, "A*02:07": 0.0, "A*02:10": 0.0, "A*02:11": 0.0, "A*02:17": 0.0, "A*02:30": 0.0, "A*02:36": 0.0, "A*02:40": 0.0, "A*02:64": 0.0, "A*02:118": 0.0, "A*03": 13.288888888888891, "A*03:01": 0.0, "A*03:01:01:01": 12.5, "A*03:02": 0.0, "A*03:123": 0.0, "A*11": 6.594444444444445, "A*11:01": 0.0, "A*23": 2.764705882352941, "A*23:01": 2.1, "A*24": 13.205555555555556, "A*24:02": 0.0, "A*24:02:01:01": 37.5, "A*24:03": 0.0, "A*24:04": 0.0, "A*24:28": 0.0, "A*25": 4.625, "A*25:01": 0.0, "A*25:01:01": 6.3, "A*26": 4.916666666666667, "A*26:01": 0.0, "A*26:01:01": 6.3, "A*26:03": 0.0, "A*26:11N": 0.0, "A*26:12": 0.0, "A*26:18": 0.0, "A*29": 0.9500000000000001, "A*29:01": 0.0, "A*29:02": 1.2, "A*29:10": 4.5, "A*30": 4.072222222222222, "A*30:01": 0.0, "A*30:02": 0.0, "A*30:04": 0.0, "A*30:08": 0.0, "A*31": 2.5777777777777775, "A*31:01": 0.0, "A*31:01:02": 3.15, "A*31:08": 0.0, "A*31:30": 0.0, "A*32": 3.9235294117647053, "A*32:01": 0.0, "A*32:01:01": 6.3, "A*32:04": 0.0, "A*33": 2.4529411764705884, "A*33:01": 2.1, "A*33:03": 0.0, "A*33:05": 0.0, "A*34": 0.21000000000000002, "A*34:02": 0.0, "A*36": 0.022222222222222223, "A*43": 0.011111111111111112, "A*66": 0.6000000000000001, "A*66:01": 0.0, "A*68": 4.272222222222222, "A*68:01": 0.0, "A*68:01:02": 0.0, "A*68:02": 0.0, "A*68:24": 0.0, "A*69": 0.03636363636363637, "A*69:01": 0.0, "A*74": 0.1, "A*80": 0.0, "B*07": 11.633333333333333, "B*07:02": 0.0, "B*07:02:01": 15.65, "B*07:04": 0.0, "B*07:05": 0.0, "B*08": 6.5470588235294125, "B*08:01": 0.0, "B*08:03": 0.0, "B*13": 8.338888888888889, "B*13:01": 0.0, "B*13:02": 0.0, "B*13:02:01": 6.3, "B*14": 2.088235294117647, "B*14:01": 0.0, "B*14:02": 0.0, "B*14:02:01": 6.3, "B*15": 5.7555555555555555, "B*15:01": 0.0, "B*15:03": 0.0, "B*15:08": 0.0, "B*15:11": 0.0, "B*15:17": 0.0, "B*15:18": 0.0, "B*15:24": 0.0, "B*15:25": 0.0, "B*15:29": 0.0, "B*15:34": 0.0, "B*18": 7.487499999999999, "B*18:01": 0.0, "B*18:01:01": 6.3, "B*18:03": 0.0, "B*27": 4.611111111111111, "B*27:02": 0.0, "B*27:04": 0.0, "B*27:05": 0.0, "B*27:05:02": 6.3, "B*27:11": 0.0, "B*27:14": 0.0, "B*35": 10.827777777777776, "B*35:01": 0.0, "B*35:01:01": 12.5, "B*35:02": 0.0, "B*35:03": 0.0, "B*35:06": 0.0, "B*35:08": 0.0, "B*37": 1.5705882352941176, "B*37:01": 0.0, "B*37:02": 0.0, "B*37:05": 0.0, "B*38": 4.2, "B*38:01": 0.0, "B*39": 2.3555555555555556, "B*39:01": 0.0, "B*39:01:01:01": 12.5, "B*39:02": 0.0, "B*39:06": 0.0, "B*39:24": 0.0, "B*40": 8.406666666666666, "B*40:01": 0.0, "B*40:02": 0.0, "B*40:02:01": 18.8, "B*40:03": 0.0, "B*40:04": 0.0, "B*40:05": 0.0, "B*40:06": 0.0, "B*40:07": 0.0, "B*40:08": 0.0, "B*40:09": 0.0, "B*40:10": 0.0, "B*40:11": 0.0, "B*40:12": 0.0, "B*40:13": 0.0, "B*40:14": 0.0, "B*40:15": 0.0, "B*40:16": 0.0, "B*40:18": 0.0, "B*40:19": 0.0, "B*41": 2.48125, "B*41:01": 0.0, "B*41:02": 0.0, "B*42": 0.14, "B*44": 8.683333333333332, "B*44:02": 0.0, "B*44:02:01:01": 18.8, "B*44:03": 0.0, "B*44:05": 0.0, "B*45": 0.36666666666666664, "B*45:01": 0.0, "B*46": 0.9866666666666666, "B*46:01": 0.0, "B*47": 0.09999999999999999, "B*47:01": 0.0, "B*48": 2.2944444444444443, "B*48:01": 0.0, "B*48:01:01": 50.0, "B*48:04": 0.0, "B*49": 3.476470588235294, "B*49:01": 3.15, "B*50": 2.5277777777777777, "B*50:01": 0.0, "B*51": 7.344444444444444, "B*51:01": 0.0, "B*51:01:01": 9.4, "B*51:05": 0.0, "B*51:06": 0.0, "B*51:08": 0.0, "B*51:10": 0.0, "B*52": 2.05, "B*52:01": 0.0, "B*52:01:01": 0.0, "B*52:01:02": 0.0, "B*53": 0.19999999999999998, "B*53:01": 0.0, "B*53:02": 0.0, "B*53:03": 0.0, "B*54": 0.8, "B*54:01": 0.0, "B*55": 0.7875, "B*55:01": 0.0, "B*56": 1.0533333333333335, "B*56:01": 0.0, "B*57": 2.8058823529411767, "B*57:01": 0.0, "B*57:03": 0.0, "B*58": 1.576470588235294, "B*58:01": 0.0, "B*59": 0.011111111111111112, "B*67": 0.0, "B*67:01": 0.0, "B*73": 0.14545454545454545, "B*73:01": 0.0, "B*78": 0.0, "B*81": 0.0, "B*82": 0.0, "B*83": 0.0, "C*01": 1.2857142857142858, "C*01:02": 3.3200000000000003, "C*01:03": 0.0, "C*02": 2.0, "C*02:02": 2.2857142857142856, "C*02:02:02": 3.35, "C*02:03": 0.0, "C*02:10": 0.0, "C*03": 8.666666666666666, "C*03:02": 1.2111111111111112,
"C*03:03": 1.9333333333333331, "C*03:03:01": 6.7, "C*03:04": 4.425, "C*03:04:01": 16.65, "C*03:05": 0.0, "C*03:06": 0.0, "C*03:07": 0.0, "C*03:08": 0.0, "C*03:09": 0.0, "C*03:10": 0.0, "C*04": 3.4285714285714284, "C*04:01": 7.1, "C*04:01:01:01": 6.7, "C*04:03": 0.0, "C*04:07": 0.0, "C*05": 2.0, "C*05:01": 1.7399999999999998, "C*05:01:01": 6.7, "C*06": 7.333333333333333, "C*06:02": 5.699999999999999, "C*06:02:01:01": 6.7, "C*06:03": 0.0, "C*06:04": 0.0, "C*07": 12.0, "C*07:01": 5.65, "C*07:01:01": 6.7, "C*07:02": 6.3125, "C*07:02:01:01": 40.0, "C*07:03": 0.0, "C*07:04": 0.35, "C*07:04:01": 6.7, "C*07:05": 0.0, "C*07:06": 0.0, "C*07:07": 0.0, "C*07:10": 0.0, "C*07:126": 0.0, "C*08": 1.1428571428571428, "C*08:01": 1.9600000000000002, "C*08:01:01": 40.0, "C*08:02": 1.7, "C*08:03": 4.075, "C*12": 5.5, "C*12:02": 0.475, "C*12:03": 2.75, "C*12:03:01:01": 13.3, "C*12:04:02": 0.0, "C*14": 0.2857142857142857, "C*14:02": 2.975, "C*14:03": 1.0, "C*15": 0.42857142857142855, "C*15:02": 3.7, "C*15:04": 0.26666666666666666, "C*15:05": 0.3333333333333333, "C*15:11": 0.0, "C*16": 0.4, "C*16:01": 0.25, "C*16:02": 2.225, "C*16:04": 0.6, "C*16:04:01": 0.0, "C*17": 0.4, "C*17:01": 0.4, "C*17:03": 1.0, "C*18": 0.0, "C*18:01": 0.0, "DPA1*01": 0.0, "DPA1*01:03": 0.0, "DPA1*01:04": 0.0, "DPA1*02:01": 0.0, "DPA1*02:01:01": 0.0, "DPA1*02:01:02": 0.0, "DPA1*02:01:03": 0.0, "DPA1*02:02:01": 0.0, "DPA1*02:02:02": 0.0, "DPA1*03:01": 0.0, "DPA1*03:02": 0.0, "DPA1*04:01": 0.0, "DPB1*01:01": 0.0, "DPB1*01:01:01": 0.0, "DPB1*01:01:02": 0.0, "DPB1*02:01": 0.0, "DPB1*02:01:02": 0.0, "DPB1*02:02": 0.0, "DPB1*03:01": 0.0, "DPB1*04:01": 0.0, "DPB1*04:02": 0.0, "DPB1*05:01": 0.0, "DPB1*06:01": 0.0, "DPB1*08:01": 0.0, "DPB1*09:01": 0.0, "DPB1*10:01": 0.0, "DPB1*11:01": 0.0, "DPB1*11:01:01": 0.0, "DPB1*11:01:02": 0.0, "DPB1*13:01": 0.0, "DPB1*14:01": 0.0, "DPB1*15:01": 0.0, "DPB1*16:01": 0.0, "DPB1*17:01":
0.0, "DPB1*18:01": 0.0, "DPB1*19:01": 0.0, "DPB1*20:01": 0.0, "DPB1*21:01": 0.0, "DPB1*22:01": 0.0, "DPB1*23:01": 0.0, "DPB1*24:01": 0.0, "DPB1*25:01": 0.0, "DPB1*26:01": 0.0, "DPB1*27:01": 0.0, "DPB1*28:01": 0.0, "DPB1*29:01": 0.0, "DPB1*30:01": 0.0, "DPB1*31:01": 0.0, "DPB1*32:01": 0.0, "DPB1*33:01": 0.0, "DPB1*34:01": 0.0, "DPB1*35:01": 0.0, "DPB1*36:01": 0.0, "DPB1*37:01": 0.0, "DPB1*38:01": 0.0, "DPB1*39:01": 0.0, "DPB1*40:01": 0.0, "DPB1*41:01": 0.0, "DPB1*44:01": 0.0, "DPB1*45:01": 0.0, "DPB1*46:01": 0.0, "DPB1*47:01": 0.0, "DPB1*48:01": 0.0, "DPB1*49:01": 0.0, "DPB1*50:01": 0.0, "DPB1*51:01": 0.0, "DPB1*52:01": 0.0, "DPB1*53:01": 0.0, "DPB1*54:01": 0.0, "DPB1*55:01": 0.0, "DPB1*56:01": 0.0, "DPB1*57:01": 0.0, "DPB1*58:01": 0.0, "DPB1*59:01": 0.0, "DPB1*60:01": 0.0, "DPB1*61:01N": 0.0, "DPB1*62:01": 0.0, "DPB1*63:01": 0.0, "DPB1*64:01N": 0.0, "DPB1*65:01": 0.0, "DPB1*66:01": 0.0, "DPB1*67:01": 0.0, "DPB1*68:01": 0.0, "DPB1*69:01": 0.0, "DPB1*70:01": 0.0, "DPB1*71:01": 0.0, "DPB1*72:01": 0.0, "DPB1*73:01": 0.0, "DPB1*74:01": 0.0, "DPB1*75:01": 0.0, "DPB1*80:01": 0.0, "DPB1*87:01": 0.0, "DQA1*01": 0.0, "DQA1*01:01": 5.26551724137931, "DQA1*01:02": 4.7, "DQA1*01:03": 3.4413793103448276, "DQA1*01:04": 0.0, "DQA1*01:05": 0.0, "DQA1*02": 16.05, "DQA1*02:01": 4.496428571428571, "DQA1*03": 4.1692307692307695, "DQA1*03:01": 4.4529411764705875, "DQA1*03:02": 0.0, "DQA1*03:03": 0.0, "DQA1*04": 4.2749999999999995, "DQA1*04:01": 0.29615384615384616, "DQA1*05": 43.34, "DQA1*05:01": 0.0, "DQA1*05:02": 0.0, "DQA1*06": 1.675, "DQA1*06:01": 0.0, "DQB1*02": 22.891666666666666, "DQB1*02:01": 0.9894736842105264, "DQB1*02:02": 4.916666666666667,
"DQB1*02:03": 0.0, "DQB1*02:85": 0.0, "DQB1*03": 48.5, "DQB1*03:01": 5.669696969696969, "DQB1*03:02": 1.903030303030303, "DQB1*03:03": 2.6086956521739126, "DQB1*03:03:02": 0.0, "DQB1*03:04": 0.6, "DQB1*03:05": 0.3333333333333333, "DQB1*03:06": 0.0, "DQB1*03:07": 0.0, "DQB1*03:08": 0.0, "DQB1*03:12": 0.0, "DQB1*04": 4.266666666666667, "DQB1*04:01": 0.0, "DQB1*04:02": 0.0, "DQB1*05": 27.75, "DQB1*05:01": 3.9757575757575756, "DQB1*05:02": 1.1966666666666665, "DQB1*05:03":
0.6954545454545454, "DQB1*05:03:01": 0.0, "DQB1*05:03:02": 0.0, "DQB1*05:04": 0.9, "DQB1*05:83": 0.0, "DQB1*06": 38.71666666666667, "DQB1*06:01": 0.6099999999999999, "DQB1*06:02": 3.890625, "DQB1*06:03": 0.284, "DQB1*06:04": 0.16875, "DQB1*06:05": 0.0, "DQB1*06:05:01": 0.0, "DQB1*06:05:02": 0.0, "DQB1*06:06": 0.0, "DQB1*06:07": 0.0, "DQB1*06:08": 0.0, "DQB1*06:09": 0.0, "DQB1*06:10": 0.0, "DQB1*06:11:01": 0.0, "DQB1*06:11:02": 0.0, "DQB1*06:12": 0.0, "DQB1*06:13": 0.0,
"DQB1*06:14": 0.0, "DQB1*06:15": 0.0, "DRB1*01": 10.235, "DRB1*01:01": 0.2, "DRB1*01:01:01": 6.3, "DRB1*01:02": 0.0, "DRB1*01:02:01": 6.3, "DRB1*01:03": 0.0, "DRB1*03": 7.07, "DRB1*03:01": 0.5909090909090909, "DRB1*03:01:01": 0.0, "DRB1*03:08": 0.0, "DRB1*03:17": 0.0, "DRB1*04": 9.577777777777778, "DRB1*04:01": 0.5357142857142857, "DRB1*04:01:01": 18.8, "DRB1*04:02": 0.047619047619047616, "DRB1*04:03": 0.11538461538461539, "DRB1*04:04": 0.30416666666666664, "DRB1*04:05": 0.30434782608695654, "DRB1*04:07": 0.0, "DRB1*04:08": 0.21428571428571427, "DRB1*04:10": 0.05263157894736842, "DRB1*04:15": 0.0, "DRB1*07": 14.289473684210526, "DRB1*07:01": 1.0357142857142858, "DRB1*07:01:01": 6.3, "DRB1*08": 2.9, "DRB1*08:01": 0.11538461538461539, "DRB1*08:01:01": 18.8, "DRB1*08:02": 0.2727272727272727, "DRB1*08:02:01": 0.0, "DRB1*08:03": 0.23076923076923078, "DRB1*08:03:02": 0.0, "DRB1*08:04": 0.09090909090909091, "DRB1*08:04:01": 0.0, "DRB1*08:04:02": 0.0, "DRB1*08:06": 0.0, "DRB1*08:10": 0.0, "DRB1*09": 1.92, "DRB1*09:01": 1.75, "DRB1*09:01:02": 0.0, "DRB1*10": 1.1400000000000001, "DRB1*10:01": 0.35294117647058826, "DRB1*11": 10.005263157894737, "DRB1*11:01": 0.45, "DRB1*11:01:01": 0.7, "DRB1*11:02": 0.0, "DRB1*11:03": 0.5, "DRB1*11:04": 0.06666666666666667, "DRB1*11:06": 0.16666666666666666, "DRB1*11:13": 0.0, "DRB1*11:30": 0.0, "DRB1*12": 2.6949999999999994, "DRB1*12:01": 0.48148148148148145, "DRB1*12:01:01": 50.0, "DRB1*12:02": 0.5, "DRB1*12:03:02": 0.0, "DRB1*13": 11.995000000000001, "DRB1*13:01": 0.4074074074074074, "DRB1*13:01:01": 25.0, "DRB1*13:02": 0.4375, "DRB1*13:03": 0.06666666666666667, "DRB1*13:05": 0.0, "DRB1*13:06": 0.0, "DRB1*13:12": 0.0, "DRB1*13:15": 0.0, "DRB1*13:20": 0.0, "DRB1*14": 2.14, "DRB1*14:01": 0.3076923076923077, "DRB1*14:01:01": 6.3, "DRB1*14:02": 0.045454545454545456, "DRB1*14:03": 0.16666666666666666, "DRB1*14:03:01": 18.8, "DRB1*14:04": 0.0,
"DRB1*14:05": 0.0, "DRB1*14:06": 0.0, "DRB1*14:07": 0.0, "DRB1*14:08": 0.0, "DRB1*14:12": 0.4, "DRB1*14:13": 0.0, "DRB1*14:14": 0.0, "DRB1*14:15": 0.0, "DRB1*14:27": 2.0, "DRB1*15": 10.464999999999998, "DRB1*15:01": 0.48148148148148145,
"DRB1*15:01:01": 18.8, "DRB1*15:02": 0.14285714285714285, "DRB1*15:02:01": 0.0, "DRB1*15:02:02": 0.0, "DRB1*15:03": 0.0, "DRB1*16": 3.03, "DRB1*16:01": 0.2857142857142857, "DRB1*16:01:01": 6.3, "DRB1*16:02": 0.05, "DRB1*16:02:01": 3.15,
"DRB1*16:03": 0.0}